{
  "global": {
    "check_for_updates_on_startup": true,
    "show_in_menu_bar": true,
    "show_profile_name_in_menu_bar": false
  },
  "profiles": [
    {
      "complex_modifications": {
        "parameters": {
          "basic.simultaneous_threshold_milliseconds": 50,
          "basic.to_delayed_action_delay_milliseconds": 500,
          "basic.to_if_alone_timeout_milliseconds": 1000,
          "basic.to_if_held_down_threshold_milliseconds": 500,
          "mouse_motion_to_scroll.speed": 100
        },
        "rules": [
          {
            "description": "Command+Enter to open terminal",
            "manipulators": [
              {
                "from": {
                  "key_code": "return_or_enter",
                  "modifiers": {
                    "mandatory": ["left_gui"]
                  }
                },
                "to": [
                  {
                    "shell_command": "open -aterminal"
                  }
                ],
                "type": "basic"
              }
            ]
          },
          {
            "description": "Change right_command+hjkl to arrow keys",
            "manipulators": [
              {
                "from": {
                  "key_code": "h",
                  "modifiers": {
                    "mandatory": ["right_command"],
                    "optional": ["any"]
                  }
                },
                "to": [
                  {
                    "key_code": "left_arrow"
                  }
                ],
                "type": "basic"
              },
              {
                "from": {
                  "key_code": "j",
                  "modifiers": {
                    "mandatory": ["right_command"],
                    "optional": ["any"]
                  }
                },
                "to": [
                  {
                    "key_code": "down_arrow"
                  }
                ],
                "type": "basic"
              },
              {
                "from": {
                  "key_code": "k",
                  "modifiers": {
                    "mandatory": ["right_command"],
                    "optional": ["any"]
                  }
                },
                "to": [
                  {
                    "key_code": "up_arrow"
                  }
                ],
                "type": "basic"
              },
              {
                "from": {
                  "key_code": "l",
                  "modifiers": {
                    "mandatory": ["right_command"],
                    "optional": ["any"]
                  }
                },
                "to": [
                  {
                    "key_code": "right_arrow"
                  }
                ],
                "type": "basic"
              }
            ]
          }
        ]
      },
      "devices": [
        {
          "disable_built_in_keyboard_if_exists": false,
          "fn_function_keys": [],
          "identifiers": {
            "is_keyboard": true,
            "is_pointing_device": false,
            "product_id": 638,
            "vendor_id": 1452
          },
          "ignore": false,
          "manipulate_caps_lock_led": true,
          "simple_modifications": []
        },
        {
          "disable_built_in_keyboard_if_exists": false,
          "fn_function_keys": [],
          "identifiers": {
            "is_keyboard": true,
            "is_pointing_device": false,
            "product_id": 34304,
            "vendor_id": 1452
          },
          "ignore": false,
          "manipulate_caps_lock_led": true,
          "simple_modifications": []
        }
      ],
      "fn_function_keys": [
        {
          "from": {
            "key_code": "f1"
          },
          "to": [
            {
              "consumer_key_code": "display_brightness_decrement"
            }
          ]
        },
        {
          "from": {
            "key_code": "f2"
          },
          "to": [
            {
              "consumer_key_code": "display_brightness_increment"
            }
          ]
        },
        {
          "from": {
            "key_code": "f3"
          },
          "to": [
            {
              "apple_vendor_keyboard_key_code": "mission_control"
            }
          ]
        },
        {
          "from": {
            "key_code": "f4"
          },
          "to": [
            {
              "apple_vendor_keyboard_key_code": "spotlight"
            }
          ]
        },
        {
          "from": {
            "key_code": "f5"
          },
          "to": [
            {
              "consumer_key_code": "dictation"
            }
          ]
        },
        {
          "from": {
            "key_code": "f6"
          },
          "to": [
            {
              "key_code": "f6"
            }
          ]
        },
        {
          "from": {
            "key_code": "f7"
          },
          "to": [
            {
              "consumer_key_code": "rewind"
            }
          ]
        },
        {
          "from": {
            "key_code": "f8"
          },
          "to": [
            {
              "consumer_key_code": "play_or_pause"
            }
          ]
        },
        {
          "from": {
            "key_code": "f9"
          },
          "to": [
            {
              "consumer_key_code": "fast_forward"
            }
          ]
        },
        {
          "from": {
            "key_code": "f10"
          },
          "to": [
            {
              "consumer_key_code": "mute"
            }
          ]
        },
        {
          "from": {
            "key_code": "f11"
          },
          "to": [
            {
              "consumer_key_code": "volume_decrement"
            }
          ]
        },
        {
          "from": {
            "key_code": "f12"
          },
          "to": [
            {
              "consumer_key_code": "volume_increment"
            }
          ]
        }
      ],
      "name": "Default profile",
      "parameters": {
        "delay_milliseconds_before_open_device": 1000
      },
      "selected": true,
      "simple_modifications": [
        {
          "from": {
            "key_code": "caps_lock"
          },
          "to": [
            {
              "key_code": "escape"
            }
          ]
        },
        {
          "from": {
            "key_code": "right_command"
          },
          "to": [
            {
              "key_code": "right_option"
            }
          ]
        },
        {
          "from": {
            "key_code": "right_option"
          },
          "to": [
            {
              "key_code": "right_command"
            }
          ]
        }
      ],
      "virtual_hid_keyboard": {
        "country_code": 0,
        "indicate_sticky_modifier_keys_state": true,
        "mouse_key_xy_scale": 100
      }
    }
  ]
}
